{
  "period": {
    "start": "2026-01-05",
    "end": "2026-03-01"
  },
  "weeks": [
    "01/05",
    "01/12",
    "01/19",
    "01/26",
    "02/02",
    "02/09",
    "02/16",
    "02/23"
  ],
  "total_pages": 3882,
  "top50": [
    {
      "page": "/campus/6271/",
      "total": 7911,
      "weekly": {
        "01/05": 1132,
        "01/12": 1089,
        "01/19": 1029,
        "01/26": 1044,
        "02/02": 1126,
        "02/09": 815,
        "02/16": 806,
        "02/23": 870
      }
    },
    {
      "page": "/campus/6288/",
      "total": 4034,
      "weekly": {
        "01/05": 608,
        "01/12": 491,
        "01/19": 496,
        "01/26": 560,
        "02/02": 513,
        "02/09": 454,
        "02/16": 519,
        "02/23": 393
      }
    },
    {
      "page": "/campus/5423/",
      "total": 3836,
      "weekly": {
        "01/05": 669,
        "01/12": 560,
        "01/19": 538,
        "01/26": 602,
        "02/02": 479,
        "02/09": 427,
        "02/16": 218,
        "02/23": 343
      }
    },
    {
      "page": "/campus/6380/",
      "total": 3423,
      "weekly": {
        "01/05": 385,
        "01/12": 386,
        "01/19": 641,
        "01/26": 607,
        "02/02": 514,
        "02/09": 366,
        "02/16": 226,
        "02/23": 298
      }
    },
    {
      "page": "/campus/24216/",
      "total": 3366,
      "weekly": {
        "01/05": 372,
        "01/12": 573,
        "01/19": 493,
        "01/26": 526,
        "02/02": 458,
        "02/09": 308,
        "02/16": 297,
        "02/23": 339
      }
    },
    {
      "page": "/",
      "total": 2871,
      "weekly": {
        "01/05": 370,
        "01/12": 314,
        "01/19": 397,
        "01/26": 369,
        "02/02": 347,
        "02/09": 296,
        "02/16": 423,
        "02/23": 355
      }
    },
    {
      "page": "/campus/18292/",
      "total": 2848,
      "weekly": {
        "01/05": 339,
        "01/12": 296,
        "01/19": 290,
        "01/26": 411,
        "02/02": 414,
        "02/09": 316,
        "02/16": 373,
        "02/23": 409
      }
    },
    {
      "page": "/campus/1637/",
      "total": 2730,
      "weekly": {
        "01/05": 315,
        "01/12": 336,
        "01/19": 341,
        "01/26": 418,
        "02/02": 367,
        "02/09": 323,
        "02/16": 282,
        "02/23": 348
      }
    },
    {
      "page": "/campus/9837/",
      "total": 2655,
      "weekly": {
        "01/05": 287,
        "01/12": 368,
        "01/19": 380,
        "01/26": 357,
        "02/02": 393,
        "02/09": 337,
        "02/16": 290,
        "02/23": 243
      }
    },
    {
      "page": "/campus/6369/",
      "total": 2654,
      "weekly": {
        "01/05": 278,
        "01/12": 283,
        "01/19": 263,
        "01/26": 347,
        "02/02": 371,
        "02/09": 359,
        "02/16": 383,
        "02/23": 370
      }
    },
    {
      "page": "/campus/10673/",
      "total": 2609,
      "weekly": {
        "01/05": 205,
        "01/12": 169,
        "01/19": 297,
        "01/26": 463,
        "02/02": 474,
        "02/09": 285,
        "02/16": 315,
        "02/23": 401
      }
    },
    {
      "page": "/campus/",
      "total": 2467,
      "weekly": {
        "01/05": 459,
        "01/12": 486,
        "01/19": 290,
        "01/26": 223,
        "02/02": 248,
        "02/09": 274,
        "02/16": 277,
        "02/23": 210
      }
    },
    {
      "page": "/campus/6289/",
      "total": 2307,
      "weekly": {
        "01/05": 295,
        "01/12": 326,
        "01/19": 298,
        "01/26": 365,
        "02/02": 314,
        "02/09": 245,
        "02/16": 199,
        "02/23": 265
      }
    },
    {
      "page": "/campus/6359/",
      "total": 2239,
      "weekly": {
        "01/05": 254,
        "01/12": 289,
        "01/19": 265,
        "01/26": 304,
        "02/02": 362,
        "02/09": 288,
        "02/16": 251,
        "02/23": 226
      }
    },
    {
      "page": "/campus/10507/",
      "total": 2213,
      "weekly": {
        "01/05": 216,
        "01/12": 1072,
        "01/19": 513,
        "01/26": 177,
        "02/02": 97,
        "02/09": 66,
        "02/16": 37,
        "02/23": 35
      }
    },
    {
      "page": "/campus/10330/",
      "total": 2066,
      "weekly": {
        "01/05": 302,
        "01/12": 306,
        "01/19": 262,
        "01/26": 308,
        "02/02": 293,
        "02/09": 197,
        "02/16": 208,
        "02/23": 190
      }
    },
    {
      "page": "/campus/11626/",
      "total": 1648,
      "weekly": {
        "01/05": 43,
        "01/12": 468,
        "01/19": 695,
        "01/26": 157,
        "02/02": 80,
        "02/09": 129,
        "02/16": 41,
        "02/23": 35
      }
    },
    {
      "page": "/campus/10304/",
      "total": 1626,
      "weekly": {
        "01/05": 177,
        "01/12": 140,
        "01/19": 142,
        "01/26": 235,
        "02/02": 276,
        "02/09": 209,
        "02/16": 223,
        "02/23": 224
      }
    },
    {
      "page": "/campus/13760/",
      "total": 1604,
      "weekly": {
        "01/05": 254,
        "01/12": 230,
        "01/19": 153,
        "01/26": 214,
        "02/02": 314,
        "02/09": 178,
        "02/16": 110,
        "02/23": 151
      }
    },
    {
      "page": "/campus/23869/",
      "total": 1515,
      "weekly": {
        "01/05": 201,
        "01/12": 232,
        "01/19": 270,
        "01/26": 234,
        "02/02": 219,
        "02/09": 175,
        "02/16": 99,
        "02/23": 85
      }
    },
    {
      "page": "/campus/25569/",
      "total": 1400,
      "weekly": {
        "01/05": 302,
        "01/12": 238,
        "01/19": 193,
        "01/26": 125,
        "02/02": 125,
        "02/09": 113,
        "02/16": 160,
        "02/23": 144
      }
    },
    {
      "page": "/campus/1696/",
      "total": 1400,
      "weekly": {
        "01/05": 126,
        "01/12": 139,
        "01/19": 166,
        "01/26": 202,
        "02/02": 190,
        "02/09": 208,
        "02/16": 157,
        "02/23": 212
      }
    },
    {
      "page": "/campus_list/",
      "total": 1356,
      "weekly": {
        "01/05": 211,
        "01/12": 195,
        "01/19": 116,
        "01/26": 187,
        "02/02": 187,
        "02/09": 170,
        "02/16": 122,
        "02/23": 168
      }
    },
    {
      "page": "/campus/37257/",
      "total": 1301,
      "weekly": {
        "01/05": 149,
        "01/12": 128,
        "01/19": 162,
        "01/26": 188,
        "02/02": 227,
        "02/09": 144,
        "02/16": 156,
        "02/23": 147
      }
    },
    {
      "page": "/campus/6278/",
      "total": 1138,
      "weekly": {
        "01/05": 183,
        "01/12": 192,
        "01/19": 172,
        "01/26": 194,
        "02/02": 126,
        "02/09": 134,
        "02/16": 92,
        "02/23": 45
      }
    },
    {
      "page": "/campus/5922/",
      "total": 1112,
      "weekly": {
        "01/05": 171,
        "01/12": 164,
        "01/19": 140,
        "01/26": 138,
        "02/02": 128,
        "02/09": 137,
        "02/16": 105,
        "02/23": 129
      }
    },
    {
      "page": "/campus/37255/",
      "total": 1025,
      "weekly": {
        "01/05": 105,
        "01/12": 118,
        "01/19": 101,
        "01/26": 123,
        "02/02": 140,
        "02/09": 125,
        "02/16": 126,
        "02/23": 187
      }
    },
    {
      "page": "/campus/4980/",
      "total": 1019,
      "weekly": {
        "01/05": 131,
        "01/12": 110,
        "01/19": 139,
        "01/26": 183,
        "02/02": 161,
        "02/09": 113,
        "02/16": 86,
        "02/23": 96
      }
    },
    {
      "page": "/campus/37241/",
      "total": 1018,
      "weekly": {
        "01/05": 84,
        "01/12": 84,
        "01/19": 112,
        "01/26": 162,
        "02/02": 201,
        "02/09": 158,
        "02/16": 119,
        "02/23": 98
      }
    },
    {
      "page": "/campus/5504/",
      "total": 1013,
      "weekly": {
        "01/05": 112,
        "01/12": 112,
        "01/19": 99,
        "01/26": 131,
        "02/02": 184,
        "02/09": 130,
        "02/16": 133,
        "02/23": 112
      }
    },
    {
      "page": "/campus/6106/",
      "total": 979,
      "weekly": {
        "01/05": 149,
        "01/12": 118,
        "01/19": 133,
        "01/26": 172,
        "02/02": 129,
        "02/09": 111,
        "02/16": 66,
        "02/23": 101
      }
    },
    {
      "page": "/campus/12287/",
      "total": 978,
      "weekly": {
        "01/05": 114,
        "01/12": 144,
        "01/19": 135,
        "01/26": 132,
        "02/02": 132,
        "02/09": 118,
        "02/16": 88,
        "02/23": 115
      }
    },
    {
      "page": "/campus/25667/",
      "total": 976,
      "weekly": {
        "01/05": 104,
        "01/12": 75,
        "01/19": 149,
        "01/26": 134,
        "02/02": 124,
        "02/09": 123,
        "02/16": 138,
        "02/23": 129
      }
    },
    {
      "page": "/campus/23598/",
      "total": 974,
      "weekly": {
        "01/05": 132,
        "01/12": 101,
        "01/19": 100,
        "01/26": 221,
        "02/02": 151,
        "02/09": 136,
        "02/16": 68,
        "02/23": 65
      }
    },
    {
      "page": "/campus/15729/",
      "total": 971,
      "weekly": {
        "01/05": 116,
        "01/12": 96,
        "01/19": 147,
        "01/26": 185,
        "02/02": 142,
        "02/09": 130,
        "02/16": 59,
        "02/23": 96
      }
    },
    {
      "page": "/campus/16508/",
      "total": 946,
      "weekly": {
        "01/05": 173,
        "01/12": 99,
        "01/19": 110,
        "01/26": 145,
        "02/02": 127,
        "02/09": 99,
        "02/16": 102,
        "02/23": 91
      }
    },
    {
      "page": "/campus/6245/",
      "total": 926,
      "weekly": {
        "01/05": 190,
        "01/12": 139,
        "01/19": 124,
        "01/26": 98,
        "02/02": 182,
        "02/09": 73,
        "02/16": 38,
        "02/23": 82
      }
    },
    {
      "page": "/campus/6292/",
      "total": 922,
      "weekly": {
        "01/05": 115,
        "01/12": 102,
        "01/19": 76,
        "01/26": 109,
        "02/02": 89,
        "02/09": 100,
        "02/16": 68,
        "02/23": 263
      }
    },
    {
      "page": "/campus/1638/",
      "total": 918,
      "weekly": {
        "01/05": 123,
        "01/12": 97,
        "01/19": 74,
        "01/26": 142,
        "02/02": 157,
        "02/09": 137,
        "02/16": 97,
        "02/23": 91
      }
    },
    {
      "page": "/campus/23620/",
      "total": 905,
      "weekly": {
        "01/05": 160,
        "01/12": 118,
        "01/19": 94,
        "01/26": 140,
        "02/02": 116,
        "02/09": 97,
        "02/16": 86,
        "02/23": 94
      }
    },
    {
      "page": "/campus/37264/",
      "total": 879,
      "weekly": {
        "01/05": 84,
        "01/12": 86,
        "01/19": 82,
        "01/26": 146,
        "02/02": 159,
        "02/09": 115,
        "02/16": 99,
        "02/23": 108
      }
    },
    {
      "page": "/campus/25669/",
      "total": 878,
      "weekly": {
        "01/05": 153,
        "01/12": 99,
        "01/19": 115,
        "01/26": 106,
        "02/02": 108,
        "02/09": 84,
        "02/16": 79,
        "02/23": 134
      }
    },
    {
      "page": "/campus/8558/",
      "total": 837,
      "weekly": {
        "01/05": 133,
        "01/12": 116,
        "01/19": 123,
        "01/26": 127,
        "02/02": 102,
        "02/09": 79,
        "02/16": 55,
        "02/23": 102
      }
    },
    {
      "page": "/campus/6279/",
      "total": 824,
      "weekly": {
        "01/05": 153,
        "01/12": 129,
        "01/19": 135,
        "01/26": 132,
        "02/02": 107,
        "02/09": 83,
        "02/16": 54,
        "02/23": 31
      }
    },
    {
      "page": "/campus/15728/",
      "total": 821,
      "weekly": {
        "01/05": 91,
        "01/12": 103,
        "01/19": 90,
        "01/26": 126,
        "02/02": 103,
        "02/09": 110,
        "02/16": 92,
        "02/23": 106
      }
    },
    {
      "page": "/diagnosis/",
      "total": 810,
      "weekly": {
        "01/05": 105,
        "01/12": 107,
        "01/19": 97,
        "01/26": 101,
        "02/02": 143,
        "02/09": 88,
        "02/16": 72,
        "02/23": 97
      }
    },
    {
      "page": "/campus/6194/",
      "total": 805,
      "weekly": {
        "01/05": 92,
        "01/12": 112,
        "01/19": 89,
        "01/26": 154,
        "02/02": 107,
        "02/09": 90,
        "02/16": 78,
        "02/23": 83
      }
    },
    {
      "page": "/campus/37221/",
      "total": 795,
      "weekly": {
        "01/05": 92,
        "01/12": 65,
        "01/19": 77,
        "01/26": 125,
        "02/02": 107,
        "02/09": 128,
        "02/16": 100,
        "02/23": 101
      }
    },
    {
      "page": "/campus/10300/",
      "total": 788,
      "weekly": {
        "01/05": 65,
        "01/12": 84,
        "01/19": 88,
        "01/26": 125,
        "02/02": 84,
        "02/09": 84,
        "02/16": 118,
        "02/23": 140
      }
    },
    {
      "page": "/campus/10318/",
      "total": 776,
      "weekly": {
        "01/05": 98,
        "01/12": 93,
        "01/19": 84,
        "01/26": 106,
        "02/02": 96,
        "02/09": 117,
        "02/16": 86,
        "02/23": 96
      }
    }
  ]
}